^C:\USERS\משתמש\DOCUMENTS\MAGSHIMIM\C++\HW\LESSON3\LESSON3\DEBUG\MAIN.OBJ|C:\USERS\משתמש\DOCUMENTS\MAGSHIMIM\C++\HW\LESSON3\LESSON3\DEBUG\VECTOR.OBJ
C:\USERS\משתמש\DOCUMENTS\MAGSHIMIM\C++\HW\LESSON3\DEBUG\LESSON3.EXE
C:\USERS\משתמש\DOCUMENTS\MAGSHIMIM\C++\HW\LESSON3\DEBUG\LESSON3.ILK
C:\USERS\משתמש\DOCUMENTS\MAGSHIMIM\C++\HW\LESSON3\DEBUG\LESSON3.PDB
